﻿<svg version="1.0" id="Layer_1" xmlns="http://www.w3.org/2000/svg" xmlns:xlink="http://www.w3.org/1999/xlink" x="0px" y="0px"
     width="28px" height="28px" viewBox="0 0 28 28" enable-background="new 0 0 28 28" xml:space="preserve" style="fill: #ffffff;">
<rect width="6" height="6" />
<rect x="22" width="6" height="6" />
<rect x="11" width="6" height="6" />
<rect y="22" width="6" height="6" />
<rect x="22" y="22" width="6" height="6" />
<rect x="11" y="22" width="6" height="6" />
<rect y="11" width="6" height="6" />
<rect x="22" y="11" width="6" height="6" />
<rect x="11" y="11" width="6" height="6" />
</svg>
