﻿{
  "hubs": [
    { "title": "Home", "iconUrl" : "/App/hubs/images/home.svg", "actionType" : "openCard", "cardId" : "Section 1.Group 1.Item 1" },
    { "title": "Search", "iconUrl" : "/App/hubs/images/search.svg", "actionType" : "openDialog", "dialogId" : "Search" },
    { "title": "Insights", "iconUrl" : "/App/hubs/images/insights.svg", "actionType" : "showList", "dataUrl" : "/App/mockapi/hubs/insights.json" },
    { "title": "Clusters", "iconUrl" : "/App/hubs/images/clusters.svg", "actionType" : "showList", "dataUrl" : "/App/mockapi/hubs/clusters.json" },
    { "title": "History", "iconUrl" : "/App/hubs/images/history.svg", "actionType" : "showList", "dataUrl" : "/App/mockapi/hubs/history.json" },
    { "title": "Settings", "iconUrl" : "/App/hubs/images/settings.svg", "actionType" : "openHubPane", "paneId" : "Settings" }
  ],
  "defaults" : {
    "activeHubTitle" : "Home2"
  }
}